<?xml version="1.0" encoding="utf-8"?>
<!-- Generated by IcoMoon.io -->
<!DOCTYPE svg PUBLIC "-//W3C//DTD SVG 1.1//EN" "http://www.w3.org/Graphics/SVG/1.1/DTD/svg11.dtd">
<svg version="1.1" xmlns="http://www.w3.org/2000/svg" xmlns:xlink="http://www.w3.org/1999/xlink" width="25" height="25" viewBox="0 0 25 25">
<g>
</g>
	<path d="M23.709 16.798c0 1.101-0.901 2-2.001 2h-19.5c-1.1 0-1.229-0.461-0.285-1.027l20.070-11.318c0.944-0.566 1.716-0.129 1.716 0.971v9.374z" fill="#f2720f" />
</svg>
